(LIT 7)
(LIT 2147483647)
(LIT #o177)
(LIT #b100110111)
(NEWLINE)
(LIT 3)
(LIT 79228162514264337593543950336)
(LIT #o377)
(LIT #x100000000)
(NEWLINE)
(INDENT)
(LIT 79228162514264337593543950336)
(LIT #xdeadbeef)
(NEWLINE)
(DEDENT)
(ENDMARKER)
