(ID "some_func")
(PUNCT "(")
(PUNCT "[")
(PUNCT "{")
(LIT "a")
(PUNCT ":")
(LIT "Apple")
(PUNCT ",")
(LIT "b")
(PUNCT ":")
(LIT "Banana")
(PUNCT "}")
(PUNCT ",")
(PUNCT "{")
(LIT "c")
(PUNCT ":")
(ID "another_func")
(PUNCT "(")
(PUNCT "{")
(LIT "key")
(PUNCT ":")
(PUNCT "[")
(PUNCT "]")
(PUNCT "}")
(PUNCT ")")
(PUNCT "}")
(PUNCT "]")
(PUNCT ")")
(NEWLINE)
(ENDMARKER)
