(LIT "\\000")
(NEWLINE)
(LIT "\\001")
(NEWLINE)
(LIT "\\002")
(NEWLINE)
(LIT "\\003")
(NEWLINE)
(LIT "\\004")
(NEWLINE)
(LIT "\\005")
(NEWLINE)
(LIT "\\006")
(NEWLINE)
(LIT "\\007")
(NEWLINE)
(LIT "\\010")
(NEWLINE)
(LIT "\\011")
(NEWLINE)
(LIT "\\012")
(NEWLINE)
(LIT "\\013")
(NEWLINE)
(LIT "\\014")
(NEWLINE)
(LIT "\\015")
(NEWLINE)
(LIT "\\016")
(NEWLINE)
(LIT "\\017")
(NEWLINE)
(LIT "\\020")
(NEWLINE)
(LIT "\\021")
(NEWLINE)
(LIT "\\022")
(NEWLINE)
(LIT "\\023")
(NEWLINE)
(LIT "\\024")
(NEWLINE)
(LIT "\\025")
(NEWLINE)
(LIT "\\026")
(NEWLINE)
(LIT "\\027")
(NEWLINE)
(LIT "\\030")
(NEWLINE)
(LIT "\\031")
(NEWLINE)
(LIT "\\032")
(NEWLINE)
(LIT "\\033")
(NEWLINE)
(LIT "\\034")
(NEWLINE)
(LIT "\\035")
(NEWLINE)
(LIT "\\036")
(NEWLINE)
(LIT "\\037")
(NEWLINE)
(LIT "\\040")
(NEWLINE)
(LIT "\\041")
(NEWLINE)
(LIT "\\042")
(NEWLINE)
(LIT "\\043")
(NEWLINE)
(LIT "\\044")
(NEWLINE)
(LIT "\\045")
(NEWLINE)
(LIT "\\046")
(NEWLINE)
(LIT "\\047")
(NEWLINE)
(LIT "\\050")
(NEWLINE)
(LIT "\\051")
(NEWLINE)
(LIT "\\052")
(NEWLINE)
(LIT "\\053")
(NEWLINE)
(LIT "\\054")
(NEWLINE)
(LIT "\\055")
(NEWLINE)
(LIT "\\056")
(NEWLINE)
(LIT "\\057")
(NEWLINE)
(LIT "\\060")
(NEWLINE)
(LIT "\\061")
(NEWLINE)
(LIT "\\062")
(NEWLINE)
(LIT "\\063")
(NEWLINE)
(LIT "\\064")
(NEWLINE)
(LIT "\\065")
(NEWLINE)
(LIT "\\066")
(NEWLINE)
(LIT "\\067")
(NEWLINE)
(LIT "\\070")
(NEWLINE)
(LIT "\\071")
(NEWLINE)
(LIT "\\072")
(NEWLINE)
(LIT "\\073")
(NEWLINE)
(LIT "\\074")
(NEWLINE)
(LIT "\\075")
(NEWLINE)
(LIT "\\076")
(NEWLINE)
(LIT "\\077")
(NEWLINE)
(LIT "\\100")
(NEWLINE)
(LIT "\\101")
(NEWLINE)
(LIT "\\102")
(NEWLINE)
(LIT "\\103")
(NEWLINE)
(LIT "\\104")
(NEWLINE)
(LIT "\\105")
(NEWLINE)
(LIT "\\106")
(NEWLINE)
(LIT "\\107")
(NEWLINE)
(LIT "\\110")
(NEWLINE)
(LIT "\\111")
(NEWLINE)
(LIT "\\112")
(NEWLINE)
(LIT "\\113")
(NEWLINE)
(LIT "\\114")
(NEWLINE)
(LIT "\\115")
(NEWLINE)
(LIT "\\116")
(NEWLINE)
(LIT "\\117")
(NEWLINE)
(LIT "\\120")
(NEWLINE)
(LIT "\\121")
(NEWLINE)
(LIT "\\122")
(NEWLINE)
(LIT "\\123")
(NEWLINE)
(LIT "\\124")
(NEWLINE)
(LIT "\\125")
(NEWLINE)
(LIT "\\126")
(NEWLINE)
(LIT "\\127")
(NEWLINE)
(LIT "\\130")
(NEWLINE)
(LIT "\\131")
(NEWLINE)
(LIT "\\132")
(NEWLINE)
(LIT "\\133")
(NEWLINE)
(LIT "\\134")
(NEWLINE)
(LIT "\\135")
(NEWLINE)
(LIT "\\136")
(NEWLINE)
(LIT "\\137")
(NEWLINE)
(LIT "\\140")
(NEWLINE)
(LIT "\\141")
(NEWLINE)
(LIT "\\142")
(NEWLINE)
(LIT "\\143")
(NEWLINE)
(LIT "\\144")
(NEWLINE)
(LIT "\\145")
(NEWLINE)
(LIT "\\146")
(NEWLINE)
(LIT "\\147")
(NEWLINE)
(LIT "\\150")
(NEWLINE)
(LIT "\\151")
(NEWLINE)
(LIT "\\152")
(NEWLINE)
(LIT "\\153")
(NEWLINE)
(LIT "\\154")
(NEWLINE)
(LIT "\\155")
(NEWLINE)
(LIT "\\156")
(NEWLINE)
(LIT "\\157")
(NEWLINE)
(LIT "\\160")
(NEWLINE)
(LIT "\\161")
(NEWLINE)
(LIT "\\162")
(NEWLINE)
(LIT "\\163")
(NEWLINE)
(LIT "\\164")
(NEWLINE)
(LIT "\\165")
(NEWLINE)
(LIT "\\166")
(NEWLINE)
(LIT "\\167")
(NEWLINE)
(LIT "\\170")
(NEWLINE)
(LIT "\\171")
(NEWLINE)
(LIT "\\172")
(NEWLINE)
(LIT "\\173")
(NEWLINE)
(LIT "\\174")
(NEWLINE)
(LIT "\\175")
(NEWLINE)
(LIT "\\176")
(NEWLINE)
(LIT "\\177")
(NEWLINE)
(LIT "\\200")
(NEWLINE)
(LIT "\\201")
(NEWLINE)
(LIT "\\202")
(NEWLINE)
(LIT "\\203")
(NEWLINE)
(LIT "\\204")
(NEWLINE)
(LIT "\\205")
(NEWLINE)
(LIT "\\206")
(NEWLINE)
(LIT "\\207")
(NEWLINE)
(LIT "\\210")
(NEWLINE)
(LIT "\\211")
(NEWLINE)
(LIT "\\212")
(NEWLINE)
(LIT "\\213")
(NEWLINE)
(LIT "\\214")
(NEWLINE)
(LIT "\\215")
(NEWLINE)
(LIT "\\216")
(NEWLINE)
(LIT "\\217")
(NEWLINE)
(LIT "\\220")
(NEWLINE)
(LIT "\\221")
(NEWLINE)
(LIT "\\222")
(NEWLINE)
(LIT "\\223")
(NEWLINE)
(LIT "\\224")
(NEWLINE)
(LIT "\\225")
(NEWLINE)
(LIT "\\226")
(NEWLINE)
(LIT "\\227")
(NEWLINE)
(LIT "\\230")
(NEWLINE)
(LIT "\\231")
(NEWLINE)
(LIT "\\232")
(NEWLINE)
(LIT "\\233")
(NEWLINE)
(LIT "\\234")
(NEWLINE)
(LIT "\\235")
(NEWLINE)
(LIT "\\236")
(NEWLINE)
(LIT "\\237")
(NEWLINE)
(LIT "\\240")
(NEWLINE)
(LIT "\\241")
(NEWLINE)
(LIT "\\242")
(NEWLINE)
(LIT "\\243")
(NEWLINE)
(LIT "\\244")
(NEWLINE)
(LIT "\\245")
(NEWLINE)
(LIT "\\246")
(NEWLINE)
(LIT "\\247")
(NEWLINE)
(LIT "\\250")
(NEWLINE)
(LIT "\\251")
(NEWLINE)
(LIT "\\252")
(NEWLINE)
(LIT "\\253")
(NEWLINE)
(LIT "\\254")
(NEWLINE)
(LIT "\\255")
(NEWLINE)
(LIT "\\256")
(NEWLINE)
(LIT "\\257")
(NEWLINE)
(LIT "\\260")
(NEWLINE)
(LIT "\\261")
(NEWLINE)
(LIT "\\262")
(NEWLINE)
(LIT "\\263")
(NEWLINE)
(LIT "\\264")
(NEWLINE)
(LIT "\\265")
(NEWLINE)
(LIT "\\266")
(NEWLINE)
(LIT "\\267")
(NEWLINE)
(LIT "\\270")
(NEWLINE)
(LIT "\\271")
(NEWLINE)
(LIT "\\272")
(NEWLINE)
(LIT "\\273")
(NEWLINE)
(LIT "\\274")
(NEWLINE)
(LIT "\\275")
(NEWLINE)
(LIT "\\276")
(NEWLINE)
(LIT "\\277")
(NEWLINE)
(LIT "\\300")
(NEWLINE)
(LIT "\\301")
(NEWLINE)
(LIT "\\302")
(NEWLINE)
(LIT "\\303")
(NEWLINE)
(LIT "\\304")
(NEWLINE)
(LIT "\\305")
(NEWLINE)
(LIT "\\306")
(NEWLINE)
(LIT "\\307")
(NEWLINE)
(LIT "\\310")
(NEWLINE)
(LIT "\\311")
(NEWLINE)
(LIT "\\312")
(NEWLINE)
(LIT "\\313")
(NEWLINE)
(LIT "\\314")
(NEWLINE)
(LIT "\\315")
(NEWLINE)
(LIT "\\316")
(NEWLINE)
(LIT "\\317")
(NEWLINE)
(LIT "\\320")
(NEWLINE)
(LIT "\\321")
(NEWLINE)
(LIT "\\322")
(NEWLINE)
(LIT "\\323")
(NEWLINE)
(LIT "\\324")
(NEWLINE)
(LIT "\\325")
(NEWLINE)
(LIT "\\326")
(NEWLINE)
(LIT "\\327")
(NEWLINE)
(LIT "\\330")
(NEWLINE)
(LIT "\\331")
(NEWLINE)
(LIT "\\332")
(NEWLINE)
(LIT "\\333")
(NEWLINE)
(LIT "\\334")
(NEWLINE)
(LIT "\\335")
(NEWLINE)
(LIT "\\336")
(NEWLINE)
(LIT "\\337")
(NEWLINE)
(LIT "\\340")
(NEWLINE)
(LIT "\\341")
(NEWLINE)
(LIT "\\342")
(NEWLINE)
(LIT "\\343")
(NEWLINE)
(LIT "\\344")
(NEWLINE)
(LIT "\\345")
(NEWLINE)
(LIT "\\346")
(NEWLINE)
(LIT "\\347")
(NEWLINE)
(LIT "\\350")
(NEWLINE)
(LIT "\\351")
(NEWLINE)
(LIT "\\352")
(NEWLINE)
(LIT "\\353")
(NEWLINE)
(LIT "\\354")
(NEWLINE)
(LIT "\\355")
(NEWLINE)
(LIT "\\356")
(NEWLINE)
(LIT "\\357")
(NEWLINE)
(LIT "\\360")
(NEWLINE)
(LIT "\\361")
(NEWLINE)
(LIT "\\362")
(NEWLINE)
(LIT "\\363")
(NEWLINE)
(LIT "\\364")
(NEWLINE)
(LIT "\\365")
(NEWLINE)
(LIT "\\366")
(NEWLINE)
(LIT "\\367")
(NEWLINE)
(LIT "\\370")
(NEWLINE)
(LIT "\\371")
(NEWLINE)
(LIT "\\372")
(NEWLINE)
(LIT "\\373")
(NEWLINE)
(LIT "\\374")
(NEWLINE)
(LIT "\\375")
(NEWLINE)
(LIT "\\376")
(NEWLINE)
(LIT "\\377")
(NEWLINE)
(ENDMARKER)
